c:\Dev\Cours\ASI\Atelier 3\lib\src\main\java\model\Family.java
c:\Dev\Cours\ASI\Atelier 3\lib\src\main\java\model\CardDTO.java
c:\Dev\Cours\ASI\Atelier 3\lib\src\main\java\model\RoomDTO.java
c:\Dev\Cours\ASI\Atelier 3\lib\src\main\java\model\UserDTO.java
